{
    "output": {
        "blocklist": [],
        "equalizer#0": {
            "balance": 0.0,
            "bypass": false,
            "input-gain": -11.16,
            "left": {
                "band0": {
                    "frequency": 105.0,
                    "gain": -3.700000047683716,
                    "mode": "APO (DR)",
                    "mute": false,
                    "q": 0.6666666865348816,
                    "slope": "x1",
                    "solo": false,
                    "type": "Lo-shelf",
                    "width": 4.0
                },
                "band1": {
                    "frequency": 38.900001525878906,
                    "gain": -1.399999976158142,
                    "mode": "APO (DR)",
                    "mute": false,
                    "q": 1.4199999570846558,
                    "slope": "x1",
                    "solo": false,
                    "type": "Bell",
                    "width": 4.0
                },
                "band2": {
                    "frequency": 128.10000610351563,
                    "gain": -3.5,
                    "mode": "APO (DR)",
                    "mute": false,
                    "q": 1.1699999570846558,
                    "slope": "x1",
                    "solo": false,
                    "type": "Bell",
                    "width": 4.0
                },
                "band3": {
                    "frequency": 398.20001220703125,
                    "gain": 5.0,
                    "mode": "APO (DR)",
                    "mute": false,
                    "q": 0.44999998807907104,
                    "slope": "x1",
                    "solo": false,
                    "type": "Bell",
                    "width": 4.0
                },
                "band4": {
                    "frequency": 1295.699951171875,
                    "gain": 3.0999999046325684,
                    "mode": "APO (DR)",
                    "mute": false,
                    "q": 2.319999933242798,
                    "slope": "x1",
                    "solo": false,
                    "type": "Bell",
                    "width": 4.0
                },
                "band5": {
                    "frequency": 2278.89990234375,
                    "gain": -1.600000023841858,
                    "mode": "APO (DR)",
                    "mute": false,
                    "q": 4.239999771118164,
                    "slope": "x1",
                    "solo": false,
                    "type": "Bell",
                    "width": 4.0
                },
                "band6": {
                    "frequency": 2842.89990234375,
                    "gain": -5.599999904632568,
                    "mode": "APO (DR)",
                    "mute": false,
                    "q": 1.190000057220459,
                    "slope": "x1",
                    "solo": false,
                    "type": "Bell",
                    "width": 4.0
                },
                "band7": {
                    "frequency": 4599.2001953125,
                    "gain": 3.5,
                    "mode": "APO (DR)",
                    "mute": false,
                    "q": 5.440000057220459,
                    "slope": "x1",
                    "solo": false,
                    "type": "Bell",
                    "width": 4.0
                },
                "band8": {
                    "frequency": 8272.400390625,
                    "gain": -8.399999618530273,
                    "mode": "APO (DR)",
                    "mute": false,
                    "q": 1.4299999475479126,
                    "slope": "x1",
                    "solo": false,
                    "type": "Bell",
                    "width": 4.0
                },
                "band9": {
                    "frequency": 10000.0,
                    "gain": 11.300000190734863,
                    "mode": "APO (DR)",
                    "mute": false,
                    "q": 0.6666666865348816,
                    "slope": "x1",
                    "solo": false,
                    "type": "Hi-shelf",
                    "width": 4.0
                }
            },
            "mode": "IIR",
            "num-bands": 10,
            "output-gain": 0.0,
            "pitch-left": 0.0,
            "pitch-right": 0.0,
            "right": {
                "band0": {
                    "frequency": 105.0,
                    "gain": -3.700000047683716,
                    "mode": "APO (DR)",
                    "mute": false,
                    "q": 0.6666666865348816,
                    "slope": "x1",
                    "solo": false,
                    "type": "Lo-shelf",
                    "width": 4.0
                },
                "band1": {
                    "frequency": 38.900001525878906,
                    "gain": -1.399999976158142,
                    "mode": "APO (DR)",
                    "mute": false,
                    "q": 1.4199999570846558,
                    "slope": "x1",
                    "solo": false,
                    "type": "Bell",
                    "width": 4.0
                },
                "band2": {
                    "frequency": 128.10000610351563,
                    "gain": -3.5,
                    "mode": "APO (DR)",
                    "mute": false,
                    "q": 1.1699999570846558,
                    "slope": "x1",
                    "solo": false,
                    "type": "Bell",
                    "width": 4.0
                },
                "band3": {
                    "frequency": 398.20001220703125,
                    "gain": 5.0,
                    "mode": "APO (DR)",
                    "mute": false,
                    "q": 0.44999998807907104,
                    "slope": "x1",
                    "solo": false,
                    "type": "Bell",
                    "width": 4.0
                },
                "band4": {
                    "frequency": 1295.699951171875,
                    "gain": 3.0999999046325684,
                    "mode": "APO (DR)",
                    "mute": false,
                    "q": 2.319999933242798,
                    "slope": "x1",
                    "solo": false,
                    "type": "Bell",
                    "width": 4.0
                },
                "band5": {
                    "frequency": 2278.89990234375,
                    "gain": -1.600000023841858,
                    "mode": "APO (DR)",
                    "mute": false,
                    "q": 4.239999771118164,
                    "slope": "x1",
                    "solo": false,
                    "type": "Bell",
                    "width": 4.0
                },
                "band6": {
                    "frequency": 2842.89990234375,
                    "gain": -5.599999904632568,
                    "mode": "APO (DR)",
                    "mute": false,
                    "q": 1.190000057220459,
                    "slope": "x1",
                    "solo": false,
                    "type": "Bell",
                    "width": 4.0
                },
                "band7": {
                    "frequency": 4599.2001953125,
                    "gain": 3.5,
                    "mode": "APO (DR)",
                    "mute": false,
                    "q": 5.440000057220459,
                    "slope": "x1",
                    "solo": false,
                    "type": "Bell",
                    "width": 4.0
                },
                "band8": {
                    "frequency": 8272.400390625,
                    "gain": -8.399999618530273,
                    "mode": "APO (DR)",
                    "mute": false,
                    "q": 1.4299999475479126,
                    "slope": "x1",
                    "solo": false,
                    "type": "Bell",
                    "width": 4.0
                },
                "band9": {
                    "frequency": 10000.0,
                    "gain": 11.300000190734863,
                    "mode": "APO (DR)",
                    "mute": false,
                    "q": 0.6666666865348816,
                    "slope": "x1",
                    "solo": false,
                    "type": "Hi-shelf",
                    "width": 4.0
                }
            },
            "split-channels": false
        },
        "plugins_order": [
            "equalizer#0"
        ]
    }
}
